{
  "type": "service_account",
  "project_id": "bookmaker-ratings-8e32f",
  "private_key_id": "692e0d9ceb8c9ad76fdcadf9268151034b092a8f",
  "private_key": "-----BEGIN PRIVATE KEY-----\nMIIEuwIBADANBgkqhkiG9w0BAQEFAASCBKUwggShAgEAAoIBAQCUhsT8GQ0jjIWd\nSs7e3JDiueLgODuVCjDqLdBAb2hwn8+zB9f4JMC2WyHiMQsdYHWtWqwEiSEm1WUV\nrCu48YsEUUegdLXG2oSII/RCzKThFuhEMnNTgVXS8xhH4COJ/5z086Eghq+kH7do\nEMF9CK2tmYvyJmeogVZm4FzZuHVWqoKS3cwRn7j4u0VlsF50TShXct0yj3w4M4YN\n1HL65O0DSK8wVO3ZXfiUpuRUrOAF4I5TQ6ohU87c6LunKNKrhrt7tlxTg26Ql3UC\nVfZ6JGB4yTS4b0Tx5bHiDid5Yx5rgLl0ClFnSZfDUxexxggCzesINBUWOSu+5GNT\n3tSGRbfBAgMBAAECggEAEP62zY3kRfwPUec8cp3Uak0Q280zbCNlY3ZojObykWiH\n8JlmKfuynWsiHmq0NeFStcpZQo+aXoIudeNkgV4KJS1Tv9V6800PuzA6A+a8uxDO\n9Pa84YI8Gs48KgVIq8K26AR0nG8s69/BMcQxD6iNjv6x17xzQgHCrDTiCvujWY4u\nfikrpwvapkb3CqmylrgkEYp9CAq7m6H54n+9sVy7dBgKzVekHVHS2FORJMZMFvS0\n0muaFrjmvEQuOuh2tQwBN9yFsktsc81C/4lR200xLiAj/33BufXE2Gnnj91KvHTp\nH1TXTqQx/MGBH2JHhNHQob5zM1Vj7s9IvrieBMegnQKBgQDOc6SUqtWWvtgauvrX\nuNdL7uouT1GTb7iuSurg11MkbchPrJ/soWR5MmFm3h5EQ3GPkxaCFe88EQITNrC2\nxzIAUnPjk4WcHBYVp/uj6q9f0nt/+AKXNvE5w9BTVKCYQUaGCuxI7s761TM1tK/1\n/QWaoGQRhv5yPBFvnxBez4GwEwKBgQC4LDUXk95Rz1Jx/lsWIZw0frRcMAam6y2a\n8hHQGH6JOuHxVqFB6Un0eMEWWuPsc+xkIslJJa3rjJy7hPZdLiWcnMHJdUsv6rwP\n9II3XYu40AsQj52f+34naPGZgKn+GZSCiLI0L03nsZ2MaKQWWs79XPQzs4gsprrM\nLKb4noF7WwKBgQCD2yY1cXqjIdaiE+Pb3YlcTQYyd6RxVvyMDPtAiSXn8VnrUSR/\nHIEwSvYcniaUkMK54UaR5PJ72Z0KqnZo9oY/4Gl14yWFlAai5Dv68Av8VlFcZQk6\njPO6Yg7u+fDr7VzehaFt32BAoeRoG7P6lxR6MpBXBXIDgcvdD6mD9GIvEwJ/acD4\nu5EtF8z0ioCDzTF/gKVA666oIzDn/xEBKXznK+Wj1/Dmp/JNhRPRzARk3GG0W8ud\nyWLZe2hCl2rCDL9y2Xspy4SOp/UiCAdevmv4zyanM9tDp5nB1t9r27kF4+LMZCga\nK9z93w0eaoGrtyptsQ6vKwDsMLeMi7EYL6rUrwKBgDc9TH2DLQyoZ2ogCumBSshI\nwM2SB9aWIAWF4cew2R6RtyTythJxg97+0WWzWBGStuV+DdWsdLXNsTns6+CJ579T\nB74a7U9kXMcpiZDN1689ZK3PPgLxepOEIc2bisoeCAPL/a1BRhBKuWRQCsyyche5\n3pvk6BUFXNWdABKTXxjg\n-----END PRIVATE KEY-----\n",
  "client_email": "connect-account@bookmaker-ratings-8e32f.iam.gserviceaccount.com",
  "client_id": "101638708056479809369",
  "auth_uri": "https://accounts.google.com/o/oauth2/auth",
  "token_uri": "https://oauth2.googleapis.com/token",
  "auth_provider_x509_cert_url": "https://www.googleapis.com/oauth2/v1/certs",
  "client_x509_cert_url": "https://www.googleapis.com/robot/v1/metadata/x509/connect-account%40bookmaker-ratings-8e32f.iam.gserviceaccount.com"
}
